[Thu, 10 Mar 2016 16:21:14 +0100]Intializing
[Thu, 10 Mar 2016 16:21:14 +0100]Connecting to database
[Thu, 10 Mar 2016 16:21:14 +0100]Creating tmp file
[Thu, 10 Mar 2016 16:21:14 +0100]Openning tmp file
